{"data":
  {
    "orders":[
      {"startDate":"2015-07-29","endDate":"2015-07-30","description":"some description2","ordered":false},
      {"startDate":"2015-03-25","endDate":"2015-03-26","description":"some description2","ordered":false},
      {
        "startDate":"2015-04-19",
        "endDate":"2015-04-21",
        "description":"some description1",
        "ordered":true
      },
      {
        "startDate":"2016-03-18",
        "endDate":"2016-03-25",
        "description":"test ordering",
        "ordered": true
      },
      {
        "startDate":"2016-04-12",
        "endDate":"2016-04-16",
        "description":"test ordering",
        "ordered": true
      },
      {
        "startDate":"2015-04-23",
        "endDate":"2015-04-25",
        "description":"some description1",
        "ordered":true
      },
      {
        "startDate":"2015-04-01",
        "endDate":"2015-04-03",
        "description":"some description2",
        "ordered":true,
        "ava":"img/theresa_thompson.png",
        "user_link":"/",
        "user_name":"Teresa Thompson",
        "order_link":"/",
        "order_id":"1234"
      },
      {
        "startDate":"2016-07-20",
        "endDate":"2016-07-24",
        "description":"some description2",
        "ordered":true,
        "ava":"img/theresa_thompson.png",
        "user_link":"/",
        "user_name":"Teresa Thompson",
        "order_link":"/",
        "order_id":"1234",
        "size": "00-78"
      },
      {
        "startDate":"2016-07-13",
        "endDate":"2016-07-17",
        "description":"some description3",
        "ordered":true,
        "ava":"img/theresa_thompson.png",
        "user_link":"/",
        "user_name":"Teresa Thompson",
        "order_link":"/",
        "order_id":"1234",
        "size": "78-98"
      },
      {
        "startDate":"2016-08-28",
        "endDate":"2016-09-02",
        "description":"some another description",
        "ordered":true,
        "ava":"img/theresa_thompson.png",
        "user_link":"/",
        "user_name":"Teresa Thompson",
        "order_link":"/",
        "order_id":"1234",
        "size": "78-98"
      },
      {
        "startDate":"2017-03-06",
        "endDate":"2017-03-10",
        "description":"ffffffffffffffffffffffffffffffff",
        "ordered":"true",
        "size": "78-98"
      },
      {
        "startDate":"2017-04-06",
        "endDate":"2017-04-09",
        "order_id":"601",
        "user_name":"Kevyon ",
        "ordered": true,
        "size": "4"
      },
      {
        "startDate":"2017-04-06",
        "endDate":"2017-04-09",
        "order_id":"606",
        "user_name":"Kevyon ",
        "ordered": true,
        "size": "4"
      },
      {
        "startDate":"2017-04-13",
        "endDate":"2017-04-16",
        "order_id":"628",
        "user_name":"Asia  Jones",
        "ordered": true,
        "size": "4"
      },
      {
        "startDate":"2017-04-17",
        "endDate":"2017-04-30",
        "order_id":"642",
        "user_name":"Naijuia Moyd Moyd ",
        "ordered": true,
        "size": "4"
      },
      {
        "startDate":"2017-04-05",
        "endDate":"2017-04-11",
        "order_id":"584",
        "user_name":"Stephanie Sporn ",
        "ordered": true,
        "rental":true,
        "size": ""
      },
      {
        "startDate":"2017-05-15",
        "endDate":"2017-05-19",
        "order_id":"650",
        "user_name":"Rebecca Barnwell",
        "ordered": true,
        "rental":true,
        "size": "00-78"
      },
      {
        "startDate":"2017-05-22",
        "endDate":"2017-05-24",
        "order_id":"346",
        "user_name":"Rebecca Barnwell",
        "ordered": true,
        "rental":true,
        "size": "00-78"
      },
      {
        "startDate":"2017-05-28",
        "endDate":"2017-06-02",
        "order_id":"867",
        "user_name":"Rebecca Barnwell",
        "ordered": true,
        "rental":true,
        "size": "78-98"
      },
      {
        "startDate":"2017-06-30",
        "endDate":"2017-07-07",
        "order_id":"867",
        "user_name":"Without size",
        "ordered": true,
        "rental":true
      },
      {
        "startDate":"2017-06-15",
        "endDate":"2017-06-19",
        "order_id":"867",
        "user_name":"Without size",
        "ordered": true,
        "rental":true
      }
    ]
  }
}
